…
``` r
flow_with_expected %>%
  filter(as_date(t) == c("2018-04-02", "2018-01-01"))
```

    ## Warning in `==.default`(as_date(t), c("2018-04-02", "2018-01-01")): longer
    ## object length is not a multiple of shorter object length

    ## # A tibble: 96 x 8
    ##    o     d     t                    flow mean_speed time  median_flow
    ##    <fct> <fct> <dttm>              <int>      <dbl> <tim>       <dbl>
    ##  1 2     3     2018-01-01 00:15:00    40       40.5 00:15        20  
    ##  2 2     3     2018-01-01 00:45:00    46       38.6 00:45        14  
    ##  3 2     3     2018-01-01 01:15:00    38       41.0 01:15        14  
    ##  4 2     3     2018-01-01 01:45:00    56       40.1 01:45        11  
    ##  5 2     3     2018-01-01 02:15:00    42       37.0 02:15        14  
    ##  6 2     3     2018-01-01 02:45:00    45       43.7 02:45        15  
    ##  7 2     3     2018-01-01 03:15:00    34       45.7 03:15        21.5
    ##  8 2     3     2018-01-01 03:45:00    37       39.8 03:45        24  
    ##  9 2     3     2018-01-01 04:15:00    41       40.0 04:15        31  
    ## 10 2     3     2018-01-01 04:45:00    28       40.5 04:45        30  
    ## # … with 86 more rows, and 1 more variable: har_mean_speed <dbl>
…
``` r
flows_23_labelled <- 
  flows_23_weekday %>% 
  mutate(dayt = as_date(t)) %>%
  mutate(month = month(t)) %>%
  inner_join(od_day_labels %>% select (-cluster), by = c("o", "d", "dayt"))
```

``` r
flows_23_labelled[flows_23_labelled$month == 5,]
```

    ## # A tibble: 2,208 x 8
    ##    o     d     t                    flow mean_speed dayt       month
    ##    <fct> <fct> <dttm>              <int>      <dbl> <date>     <dbl>
    ##  1 2     3     2018-05-01 00:00:00    14       45.2 2018-05-01     5
    ##  2 2     3     2018-05-01 00:15:00     8       45.6 2018-05-01     5
    ##  3 2     3     2018-05-01 00:30:00     6       38.1 2018-05-01     5
    ##  4 2     3     2018-05-01 00:45:00     9       50.7 2018-05-01     5
    ##  5 2     3     2018-05-01 01:00:00    34       48.0 2018-05-01     5
    ##  6 2     3     2018-05-01 01:15:00    18       37.8 2018-05-01     5
    ##  7 2     3     2018-05-01 01:30:00    14       43.9 2018-05-01     5
    ##  8 2     3     2018-05-01 01:45:00    12       42.2 2018-05-01     5
    ##  9 2     3     2018-05-01 02:00:00    18       41.1 2018-05-01     5
    ## 10 2     3     2018-05-01 02:15:00    17       45.1 2018-05-01     5
    ## # … with 2,198 more rows, and 1 more variable: cluster_label <fct>
…
### Atypical Flow Analysis

``` r
flows_23_atypical_real <-
  flows_23_atypical %>%
  filter(flow != 0) 
```

``` r
flows_23_atypical_real %>%
filter(flow == 1)
```

    ## # A tibble: 122 x 9
    ##    o     d     t                    flow mean_speed dayt       month
    ##    <fct> <fct> <dttm>              <int>      <dbl> <date>     <dbl>
    ##  1 2     3     2018-04-20 13:15:00     1      30.0  2018-04-20     4
    ##  2 2     3     2018-04-24 06:15:00     1       5.53 2018-04-24     4
    ##  3 2     3     2018-04-24 08:00:00     1      16.4  2018-04-24     4
    ##  4 2     3     2018-05-01 07:30:00     1      11.1  2018-05-01     5
    ##  5 2     3     2018-05-01 07:45:00     1      11.1  2018-05-01     5
    ##  6 2     3     2018-05-03 06:30:00     1      18.6  2018-05-03     5
    ##  7 2     3     2018-05-03 07:15:00     1      14.9  2018-05-03     5
    ##  8 2     3     2018-05-03 07:30:00     1      14.9  2018-05-03     5
    ##  9 2     3     2018-05-07 07:00:00     1      44.6  2018-05-07     5
    ## 10 2     3     2018-05-07 08:45:00     1      51.6  2018-05-07     5
    ## # … with 112 more rows, and 2 more variables: cluster_label <fct>, time <time>

``` r
flows_23_atypical_real %>%
  filter(dayt == "2018-04-24")
```

    ## # A tibble: 96 x 9
    ##    o     d     t                    flow mean_speed dayt       month
    ##    <fct> <fct> <dttm>              <int>      <dbl> <date>     <dbl>
    ##  1 2     3     2018-04-24 00:00:00    29       44.3 2018-04-24     4
    ##  2 2     3     2018-04-24 00:15:00    20       44.2 2018-04-24     4
    ##  3 2     3     2018-04-24 00:30:00    13       35.8 2018-04-24     4
    ##  4 2     3     2018-04-24 00:45:00    13       43.9 2018-04-24     4
    ##  5 2     3     2018-04-24 01:00:00     7       47.1 2018-04-24     4
    ##  6 2     3     2018-04-24 01:15:00    13       46.1 2018-04-24     4
    ##  7 2     3     2018-04-24 01:30:00    13       49.4 2018-04-24     4
    ##  8 2     3     2018-04-24 01:45:00    12       45.9 2018-04-24     4
    ##  9 2     3     2018-04-24 02:00:00    10       41.6 2018-04-24     4
    ## 10 2     3     2018-04-24 02:15:00    10       44.0 2018-04-24     4
    ## # … with 86 more rows, and 2 more variables: cluster_label <fct>, time <time>
